{
    "ctm": {
        "ctm_version": 1,
        "type": "CTM",
        "layer": "TRANSLUCENT",
        "textures": [ "gregtech:blocks/casings/transparent/tungsten_reinforced_glass_ctm" ],
        "extra": { "connect_inside": true }
    }
}
