{
    "ctm": {
        "ctm_version": 1,
        "type": "CTM",
        "layer": "CUTOUT",
        "textures": [ "gregtech:blocks/material_sets/metallic/gt_metal_casing_ctm" ],
        "extra": { "connect_inside": true }
    }
}
